IMAGE bg_image "planes/madmarco_bg.png" NONE
IMAGE test_image "planes/back.png" NONE
IMAGE backtest_image "planes/backtest.png" NONE
IMAGE bird_image "images/bird.png" NONE
IMAGE rkbg_image "planes/bg_a_rk.png" NONE