IMAGE floor "tiles/floor.bmp"   0
IMAGE wall  "tiles/wall.bmp"    0
IMAGE light "tiles/light.bmp"   0

SPRITE runner   "sprites/player.bmp"    2   2   NONE 10
SPRITE rock     "sprites/rock.bmp"      1   1   NONE 0